{
    "common": {
        "name": "tronity",
        "version": "0.0.3",
        "news": {
            "0.0.3": {
                "en": "Troubleshoot with start and stop loads",
                "de": "Fehler beheben mit Start- und Stopp von Ladungen"
            },
            "0.0.2": {
                "en": "Adding support for starting and stopping loads",
                "de": "Hinzufügen von Unterstützung für Start- und Stopp von Ladungen"
            },
            "0.0.1": {
                "en": "Initial release",
                "de": "Erstveröffentlichung"
            }
        },
        "title": "Tronity",
        "titleLang": {
            "en": "Tronity",
            "de": "Tronity"
        },
        "desc": {
            "en": "Read vehicle infos from BMW, MINI, Mercedes, Jaguar, Audi, Volkswagen, Skoda, Kia, Hyundai, Renault, Nissan, Opel, Peugeot und Tesla",
            "de": "Lesen Sie Fahrzeuginformationen von BMW, MINI, Mercedes, Jaguar, Audi, Volkswagen, Skoda, Kia, Hyundai, Renault, Nissan, Opel, Peugeot und Tesla",
            "ru": "Читайте информацию о транспортных средствах от BMW, MINI, Mercedes, Jaguar, Audi, Volkswagen, Skoda, Kia, Hyundai, Renault, Nissan, Opel, Peugeot and Tesla",
            "pt": "Leia informações sobre veículos da BMW, MINI, Mercedes, Jaguar, Audi, Volkswagen, Skoda, Kia, Hyundai, Renault, Nissan, Opel, Peugeot e Tesla",
            "nl": "Lees voertuiginformatie van BMW, MINI, Mercedes, Jaguar, Audi, Volkswagen, Skoda, Kia, Hyundai, Renault, Nissan, Opel, Peugeot en Tesla",
            "fr": "Lire les informations sur les véhicules de BMW, MINI, Mercedes, Jaguar, Audi, Volkswagen, Skoda, Kia, Hyundai, Renault, Nissan, Opel, Peugeot et Tesla",
            "it": "Leggi le informazioni sui veicoli da BMW, MINI, Mercedes, Jaguar, Audi, Volkswagen, Skoda, Kia, Hyundai, Renault, Nissan, Opel, Peugeot e Tesla",
            "es": "Lea la información del vehículo de BMW, MINI, Mercedes, Jaguar, Audi, Volkswagen, Skoda, Kia, Hyundai, Renault, Nissan, Opel, Peugeot y Tesla",
            "pl": "Przeczytaj informacje o pojazdach BMW, MINI, Mercedes, Jaguar, Audi, Volkswagen, Skoda, Kia, Hyundai, Renault, Nissan, Opel, Peugeot and Tesla",
            "zh-cn": "阅读宝马，MINI，梅赛德斯，捷豹，奥迪，大众，斯柯达，起亚，现代，雷诺和特斯拉的车辆信息"
        },
        "authors": [
            "tronity <info@tronity.io>"
        ],
        "keywords": [
            "BMW",
            "MINI",
            "Mercedes",
            "Jaguar",
            "Audi",
            "Volkswagen",
            "Skoda",
            "Kia",
            "Hyundai",
            "Renault",
            "Nissan",
            "Opel",
            "Peugeot",
            "Tesla",
            "Tronity",
            "Tronity Platform"
        ],
        "license": "MIT",
        "platform": "Javascript/Node.js",
        "main": "build/src/main.js",
        "icon": "tronity.png",
        "enabled": true,
        "extIcon": "https://gitlab.com/tronity/iobroker.tronity/-/raw/master/admin/tronity.png",
        "readme": "https://gitlab.com/tronity/iobroker.tronity/-/blob/master/README.md",
        "loglevel": "info",
        "mode": "daemon",
        "type": "vehicle",
        "compact": true,
        "materialize": true,
        "messagebox": true,
        "dependencies": [
            {
                "js-controller": ">=1.4.2"
            }
        ]
    },
    "native": {
        "client_id": "",
        "client_secret": "",
        "vehicle_id": "",
        "token": ""
    },
    "objects": [],
    "instanceObjects": []
}